<?xml version="1.0" encoding="UTF-8"?>
<symbol version="7" name="command_module">
    <symboltype>BLOCK</symboltype>
    <timestamp>2016-5-17T14:15:21</timestamp>
    <pin polarity="Input" x="0" y="-352" name="bit_module_busy" />
    <pin polarity="Input" x="0" y="-288" name="start" />
    <pin polarity="Input" x="0" y="-224" name="clk" />
    <pin polarity="Input" x="0" y="-160" name="temperatureData(23:0)" />
    <pin polarity="Input" x="0" y="-96" name="outData(7:0)" />
    <pin polarity="Input" x="0" y="-32" name="inputData(7:0)" />
    <pin polarity="Output" x="480" y="-352" name="startWrite" />
    <pin polarity="Output" x="480" y="-192" name="startRead" />
    <pin polarity="Output" x="480" y="-32" name="busy" />
    <graph>
        <rect width="352" x="64" y="-384" height="384" />
        <attrtext style="alignment:BCENTER;fontsize:56;fontname:Arial" attrname="SymbolName" x="240" y="-392" type="symbol" />
        <attrtext style="fontsize:24;fontname:Arial" attrname="PinName" x="72" y="-352" type="pin bit_module_busy" />
        <line x2="0" y1="-352" y2="-352" x1="64" />
        <attrtext style="fontsize:24;fontname:Arial" attrname="PinName" x="72" y="-288" type="pin start" />
        <line x2="0" y1="-288" y2="-288" x1="64" />
        <attrtext style="fontsize:24;fontname:Arial" attrname="PinName" x="72" y="-224" type="pin clk" />
        <line x2="0" y1="-224" y2="-224" x1="64" />
        <attrtext style="fontsize:24;fontname:Arial" attrname="PinName" x="72" y="-160" type="pin temperatureData(23:0)" />
        <rect width="64" x="0" y="-172" height="24" />
        <line x2="0" y1="-160" y2="-160" x1="64" />
        <attrtext style="fontsize:24;fontname:Arial" attrname="PinName" x="72" y="-96" type="pin outData(7:0)" />
        <rect width="64" x="0" y="-108" height="24" />
        <line x2="0" y1="-96" y2="-96" x1="64" />
        <attrtext style="fontsize:24;fontname:Arial" attrname="PinName" x="72" y="-32" type="pin inputData(7:0)" />
        <rect width="64" x="0" y="-44" height="24" />
        <line x2="0" y1="-32" y2="-32" x1="64" />
        <attrtext style="alignment:RIGHT;fontsize:24;fontname:Arial" attrname="PinName" x="408" y="-352" type="pin startWrite" />
        <line x2="480" y1="-352" y2="-352" x1="416" />
        <attrtext style="alignment:RIGHT;fontsize:24;fontname:Arial" attrname="PinName" x="408" y="-192" type="pin startRead" />
        <line x2="480" y1="-192" y2="-192" x1="416" />
        <attrtext style="alignment:RIGHT;fontsize:24;fontname:Arial" attrname="PinName" x="408" y="-32" type="pin busy" />
        <line x2="480" y1="-32" y2="-32" x1="416" />
    </graph>
</symbol>
